<svg width="24" height="24" viewBox="0 0 24 24" fill="none" xmlns="http://www.w3.org/2000/svg">
<circle cx="12" cy="12" r="12" fill="#222222"/>
<g filter="url(#filter0_d)">
<path d="M9.53906 9.63636C10.487 9.63636 11.3445 10.1215 11.8359 10.79L13.0007 9.61996C12.3041 8.71644 10.9633 8 9.53906 8C7.04533 8 5 10.0127 5 12.5C5 14.9873 7.04533 17 9.53906 17C11.6063 17 13.3453 15.6173 13.8785 13.7273C13.9933 13.3345 14.0508 12.9254 14.0508 12.5V12.0909H9.94922V13.727H12.123C11.6719 14.6925 10.6793 15.3636 9.53906 15.3636C7.9559 15.3636 6.64062 14.079 6.64062 12.5C6.64062 10.921 7.9559 9.63636 9.53906 9.63636Z" fill="white"/>
<path d="M17.7422 10.4545H16.1016V11.6818H14.8711V13.3182H16.1016V14.5455H17.7422V13.3182H19V11.6818H17.7422V10.4545Z" fill="white"/>
</g>
<defs>
<filter id="filter0_d" x="3" y="8" width="18" height="13" filterUnits="userSpaceOnUse" color-interpolation-filters="sRGB">
<feFlood flood-opacity="0" result="BackgroundImageFix"/>
<feColorMatrix in="SourceAlpha" type="matrix" values="0 0 0 0 0 0 0 0 0 0 0 0 0 0 0 0 0 0 127 0"/>
<feOffset dy="2"/>
<feGaussianBlur stdDeviation="1"/>
<feColorMatrix type="matrix" values="0 0 0 0 0 0 0 0 0 0 0 0 0 0 0 0 0 0 0.25 0"/>
<feBlend mode="normal" in2="BackgroundImageFix" result="effect1_dropShadow"/>
<feBlend mode="normal" in="SourceGraphic" in2="effect1_dropShadow" result="shape"/>
</filter>
</defs>
</svg>
