<svg width="24" height="24" viewBox="0 0 24 24" fill="none" xmlns="http://www.w3.org/2000/svg">
<circle cx="12" cy="12" r="12" fill="#222222"/>
<path d="M18 8.18385C17.5586 8.38454 17.0838 8.52029 16.5859 8.58091C17.0943 8.26857 17.4844 7.77436 17.6686 7.18451C17.1929 7.47388 16.6657 7.6838 16.1052 7.79695C15.6561 7.30651 15.0162 7 14.3077 7C12.9483 7 11.8458 8.13057 11.8458 9.52452C11.8458 9.7224 11.8676 9.915 11.9099 10.0999C9.86377 9.99463 8.04957 8.98965 6.83522 7.46183C6.62334 7.8346 6.50179 8.26857 6.50179 8.73115C6.50179 9.6068 6.93675 10.3798 7.59699 10.8324C7.19361 10.8194 6.81373 10.7059 6.48196 10.5163C6.48178 10.5271 6.48178 10.5378 6.48178 10.5483C6.48178 11.7715 7.33076 12.7918 8.45681 13.0235C8.25044 13.0815 8.0325 13.1122 7.80832 13.1122C7.64932 13.1122 7.49527 13.0966 7.34508 13.0672C7.65831 14.0699 8.56734 14.7999 9.64491 14.8204C8.80217 15.4976 7.74075 15.9011 6.58698 15.9011C6.38869 15.9011 6.19223 15.8892 6 15.8657C7.08896 16.5822 8.38336 17 9.77362 17C14.302 17 16.7785 13.1533 16.7785 9.81691C16.7785 9.70752 16.7761 9.59851 16.7713 9.49045C17.2527 9.13461 17.6701 8.69011 18 8.18385Z" fill="white"/>
</svg>
